{
  "rules": {
    "one-line": [
      true
    ],
    "no-duplicate-variable": true,
    "no-unused-variable": [
      true
    ],
    "comment-format": [
      true,
      "check-space"
    ],
    "radix": false
  },
  "rulesDirectory": [
    "node_modules/tslint/lib/rules"
  ]
}
